Preregistration Experimental Design and Analysis
…
ind_temp = group_by(trial, id, internal, flexibility, repair) %>%
  summarise(
    change_fb_learning = mean(fb_learning[trial > 6]) - 
      mean(fb_learning[trial < 7]),
  )

ind = left_join(ind, ind_temp)

## Joining, by = c("id", "internal", "flexibility", "repair")

print(ind)

## # A tibble: 180 x 8
## # Groups:   id, internal, flexibility [180]
##       id internal flexibility repair average change change_dominated
##    <int> <chr>    <chr>       <chr>    <dbl>  <dbl>            <dbl>
##  1     1 yes      yes         yes       26.9  -11.8               NA
##  2     2 yes      yes         no        26.7  -20.0               NA
##  3     3 yes      no          no        22.3  -22.7               NA
##  4     4 yes      yes         yes       23     -9                 NA
##  5     5 yes      yes         no        24.5  -19                 NA
##  6     6 yes      no          no        18.7  -16.3               NA
##  7     7 yes      yes         yes       27.3  -10.3               NA
##  8     8 yes      yes         no        18.5  -14.7               NA
##  9     9 yes      no          no        17.8  -11.5               NA
## 10    10 yes      yes         yes       30.2  -16.2               NA
## #  with 170 more rows, and 1 more variable: change_fb_learning <dbl>
…
